HormonesTutorial • Rojas.pkg
…
In this tutorial, we will be using the sea turtle hormone data
collected from gravid and non-gravid loggerhead turtles.

#install.packages("googlesheets4")
library(googlesheets4)
googlesheets4::gs4_deauth()
Data_RojasC <- read_sheet("https://docs.google.com/spreadsheets/d/1X8VwD7pLS437uzxXK2OaZDiklGRgoYlYfCu3BsmlO5s/edit?usp=sharing")

## ✔ Reading from Data_RojasC.

## ✔ Range Data_RojasC.

Data_RojasC

## # A tibble: 44 × 8
##    ID     DATE                  VTG E2        Testosterone   BHB Follicles Note 
##    <chr>  <dttm>              <dbl> <list>           <dbl> <dbl> <chr>     <chr>
##  1 HA4819 2013-03-07 00:00:00  35.5 <dbl [1]>         915.  0.66 Y         Grav…
##  2 HA4845 2011-03-08 00:00:00  58.4 <dbl [1]>         840.  1.12 Y         Grav…
##  3 HA4872 2013-03-04 00:00:00  41.1 <dbl [1]>        1022   1.33 Y         Grav…
##  4 W1827  2023-03-05 00:00:00  26.6 <dbl [1]>        1453   1.05 NA        Grav…
##  5 W1833  2003-03-05 00:00:00  34.2 <dbl [1]>        3321   0.89 NA        Grav…
##  6 W1847  2003-03-04 00:00:00  57.8 <dbl [1]>        1442   0.69 NA        Grav…
##  7 W1899  2003-03-06 00:00:00  21.5 <dbl [1]>         279   0.4  NA        Grav…
##  8 W1990  2004-03-10 00:00:00  23.4 <dbl [1]>        1892   1.55 NA        Grav…
##  9 X5936  2003-03-06 00:00:00  15.1 <dbl [1]>        1918   0.92 NA        Grav…
## 10 X5969  2003-03-05 00:00:00  11.2 <dbl [1]>        1813   0.71 NA        Grav…
## # ℹ 34 more rows
…
#Cleaning and organizing the data

The first function of this hormone package is a function that cleans
the data by removing NAS. This function is called Remove_NA and it
requires the data set and the column that you wish to clean which should
be character data. You will run the function and you will need to create
a variable called “columns” and include the data that you wish to clean
using quotation marks. At the end to run the function you will use the
variable that you created.

library(Rojas.pkg)
columns <-c("Follicles", "Note")
remove_nas(Data_RojasC, columns)

## # A tibble: 44 × 8
##    ID     DATE                  VTG E2        Testosterone   BHB Follicles Note 
##    <chr>  <dttm>              <dbl> <list>           <dbl> <dbl> <chr>     <chr>
##  1 HA4819 2013-03-07 00:00:00  35.5 <dbl [1]>         915.  0.66 Y         Grav…
##  2 HA4845 2011-03-08 00:00:00  58.4 <dbl [1]>         840.  1.12 Y         Grav…
##  3 HA4872 2013-03-04 00:00:00  41.1 <dbl [1]>        1022   1.33 Y         Grav…
##  4 W1827  2023-03-05 00:00:00  26.6 <dbl [1]>        1453   1.05 NA        Grav…
##  5 W1833  2003-03-05 00:00:00  34.2 <dbl [1]>        3321   0.89 NA        Grav…
##  6 W1847  2003-03-04 00:00:00  57.8 <dbl [1]>        1442   0.69 NA        Grav…
##  7 W1899  2003-03-06 00:00:00  21.5 <dbl [1]>         279   0.4  NA        Grav…
##  8 W1990  2004-03-10 00:00:00  23.4 <dbl [1]>        1892   1.55 NA        Grav…
##  9 X5936  2003-03-06 00:00:00  15.1 <dbl [1]>        1918   0.92 NA        Grav…
## 10 X5969  2003-03-05 00:00:00  11.2 <dbl [1]>        1813   0.71 NA        Grav…
## # ℹ 34 more rows
#Selecting and manipulated the data

The second function is for selecting specific data columns. This
function is called Select and it requires the data and the columns that
you wish to select. You will run the function and you will need to
create a variable called “columns” and include the data that you wish to
select using quotation marks. At the end to run the function you will
use the variable that you created. This function will show you the data
that you select.

library(Rojas.pkg)
columns <- c("VTG", "E2", "Testosterone", "BHB")
Select_data (Data_RojasC, columns)

## # A tibble: 44 × 4
##      VTG E2        Testosterone   BHB
##    <dbl> <list>           <dbl> <dbl>
##  1  35.5 <dbl [1]>         915.  0.66
##  2  58.4 <dbl [1]>         840.  1.12
##  3  41.1 <dbl [1]>        1022   1.33
##  4  26.6 <dbl [1]>        1453   1.05
##  5  34.2 <dbl [1]>        3321   0.89
##  6  57.8 <dbl [1]>        1442   0.69
##  7  21.5 <dbl [1]>         279   0.4 
##  8  23.4 <dbl [1]>        1892   1.55
##  9  15.1 <dbl [1]>        1918   0.92
## 10  11.2 <dbl [1]>        1813   0.71
## # ℹ 34 more rows
…
#Filtering and compare specific data

Function six is used to filter specific data selected. This function
is called Filter and it requires the data and the columns that you wish
to filter. This function will show you the data that you filter in
detail without including other data. Also, this function works to
compare two sets of data in this case two hormone concentrations.

library(Rojas.pkg)
columns <- c("VTG", "E2")
filter_H(Data_RojasC, columns)

## # A tibble: 44 × 2
##      VTG E2       
##    <dbl> <list>   
##  1  35.5 <dbl [1]>
##  2  58.4 <dbl [1]>
##  3  41.1 <dbl [1]>
##  4  26.6 <dbl [1]>
##  5  34.2 <dbl [1]>
##  6  57.8 <dbl [1]>
##  7  21.5 <dbl [1]>
##  8  23.4 <dbl [1]>
##  9  15.1 <dbl [1]>
## 10  11.2 <dbl [1]>
## # ℹ 34 more rows
…
